Sample_label,Shannons_H,Latitude,Reads,Fraction,detail
TARA_004_DCM_0.8to5,1.099149534,36.5533,37501,1.5,W0.8-5
TARA_004_DCM_5to20,2.298320316,36.5533,35331,2,W5-20
TARA_004_SRF_0.8to5,2.117670054,36.5533,25776,1.5,W0.8-5
TARA_004_SRF_5to20,1.753507937,36.5533,29029,2,W5-20
TARA_004_SRF_180to2000,1.302900316,36.5533,370229,4,N180-2000
TARA_007_DCM_0.8to5,2.279150046,37.0541,28400,1.5,W0.8-5
TARA_007_DCM_5to20,2.911107521,37.0541,62950,2,W5-20
TARA_007_DCM_20to180,2.894229805,37.0112,40560,3,N20-180
TARA_007_SRF_0.8to5,2.212498885,37.051,141105,1.5,W0.8-5
TARA_007_SRF_20to180,2.456166714,37.0299,43744,3,N20-180
TARA_009_DCM_0.8to5,1.893571155,39.0609,49366,1.5,W0.8-5
TARA_009_DCM_5to20,2.259334645,39.0609,277966,2,W5-20
TARA_009_SRF_0.8to5,0.972338434,39.1633,105860,1.5,W0.8-5
TARA_009_SRF_180to2000,1.959419074,39.0856,10375,4,N180-2000
TARA_011_SRF_20to180,1.976675434,41.6663,35543,3,N20-180
TARA_011_SRF_180to2000,1.988765696,41.6666,627450,4,N180-2000
TARA_018_DCM_0.8to5,2.42088677,35.7528,35156,1.5,W0.8-5
TARA_018_DCM_5to20,1.00368791,35.7528,8275,2,W5-20
TARA_018_DCM_20to180,1.853493397,35.7528,60911,3,N20-180
TARA_018_SRF_0.8to5,1.391718251,35.759,56307,1.5,W0.8-5
TARA_018_SRF_5to20,2.767596082,35.759,22940,2,W5-20
TARA_018_SRF_20to180,1.985860959,35.7444,28749,3,N20-180
TARA_020_SRF_5to20,2.579537058,34.453,21081,2,W5-20
TARA_020_SRF_180to2000,0.901500922,34.4064,4666,4,N180-2000
TARA_022_DCM_180to2000,0.399500122,39.8607,5160,4,N180-2000
TARA_022_DCM_0.8to5,2.746332481,39.5705,53128,1.5,W0.8-5
TARA_022_DCM_5to20,3.539242551,39.5705,115360,2,W5-20
TARA_022_DCM_20to180,2.693895435,39.8661,27334,3,N20-180
TARA_022_SRF_180to2000,2.051869844,39.8312,15372,4,N180-2000
TARA_022_SRF_0.8to5,2.653223213,39.8386,40910,1.5,W0.8-5
TARA_022_SRF_5to20,2.384598682,39.8386,10257,2,W5-20
TARA_022_SRF_20to180,2.70540019,39.814,79814,3,N20-180
TARA_023_DCM_0.8to5,2.701820407,42.1735,37418,1.5,W0.8-5
TARA_023_DCM_20to180,2.272550616,42.1694,379654,3,N20-180
TARA_023_DCM_180to2000,2.531681321,42.1646,10395,4,N180-2000
TARA_023_SRF_0.8to5,2.564786832,42.2038,27958,1.5,W0.8-5
TARA_023_SRF_20to180,2.102752787,42.1735,28614,3,N20-180
TARA_023_SRF_180to2000,1.096949703,42.1916,95599,4,N180-2000
TARA_025_DCM_0.8to5,2.035654182,39.3991,31929,1.5,W0.8-5
TARA_025_DCM_5to20,2.348465181,39.3991,54771,2,W5-20
TARA_025_DCM_20to180,2.659295119,39.4046,63457,3,N20-180
TARA_025_DCM_180to2000,1.451886557,39.3833,4629,4,N180-2000
TARA_025_SRF_0.8to5,1.423129852,39.3888,157161,1.5,W0.8-5
TARA_025_SRF_5to20,2.580736721,39.3888,8982,2,W5-20
TARA_025_SRF_20to180,2.043601909,39.3885,39169,3,N20-180
TARA_025_SRF_180to2000,1.037242187,39.2143,3771,4,N180-2000
TARA_026_SRF_0.8to20,1.98516336,38.4761,31318,2,W0.8-20
TARA_026_SRF_20to180,0.611729969,38.4735,40184,3,N20-180
TARA_030_DCM_20to180,1.751144214,33.9189,32024,3,N20-180
TARA_030_SRF_5to20,2.150266364,33.9179,25255,2,W5-20
TARA_030_SRF_20to180,2.552423141,33.9178,18156,3,N20-180
TARA_030_SRF_180to2000,1.775251212,33.9184,13330,4,N180-2000
TARA_036_DCM_0.8to5,2.392105824,20.8222,22674,1.5,W0.8-5
TARA_036_DCM_5to20,1.869529261,20.8222,17230,2,W5-20
TARA_036_DCM_180to2000,2.064000992,20.807,15930,4,N180-2000
TARA_036_DCM_20to180,2.413822038,20.8116,33332,3,N20-180
TARA_036_SRF_0.8to5,2.294801904,20.8183,34582,1.5,W0.8-5
TARA_036_SRF_20to180,1.506303997,20.8183,306835,3,N20-180
TARA_036_SRF_180to2000,0.475860435,20.8215,486219,4,N180-2000
TARA_038_DCM_0.8to5_R1,2.266736177,19.0284,16047,1.5,W0.8-5
TARA_038_DCM_20to180,1.628457446,19.0235,97099,3,N20-180
TARA_038_DCM_0.8to5_R2,2.299772555,19.0284,25807,1.5,W0.8-5
TARA_038_SRF_0.8to5,2.088638413,19.0393,134686,1.5,W0.8-5
TARA_038_SRF_20to180,2.415074141,19.0393,13114,3,N20-180
TARA_038_SRF_180to2000,2.200290639,19.0359,33683,4,N180-2000
TARA_039_DCM_0.8to5,2.90411541,18.5839,57408,1.5,W0.8-5
TARA_039_DCM_20to180,1.801722026,18.5745,8902,3,N20-180
TARA_039_DCM_180to2000,1.478226072,18.5584,3190,4,N180-2000
TARA_039_FSW_0.8to5_R2,1.142452277,18.5745,316935,1.5,W0.8-5
TARA_039_FSW_0.8to5_R3,1.429595014,18.5745,51903,1.5,W0.8-5
TARA_039_SRF_0.8to5,2.143550791,18.5918,55476,1.5,W0.8-5
TARA_039_SRF_5to20,2.046154255,18.5918,10135,2,W5-20
TARA_039_SRF_20to180,2.527698103,18.5667,17341,3,N20-180
TARA_039_SRF_180to2000,0.445047961,18.5743,27908,4,N180-2000
TARA_040_SRF_gt3,2.535592056,17.5294,17543,6,W>3
TARA_040_ZZZ_gt3_R10,2.126749578,17.4831,35894,6,W>3
TARA_040_ZZZ_gt3_R2,1.689504761,17.4814,59723,6,W>3
TARA_040_ZZZ_gt3_R8,2.72179033,17.4825,30580,6,W>3
TARA_041_DCM_0.8to5,1.915050918,14.5536,440655,1.5,W0.8-5
TARA_041_DCM_5to20,1.405518092,14.5536,32443,2,W5-20
TARA_041_DCM_20to180,1.958185061,14.5644,92990,3,N20-180
TARA_041_SRF_0.8to5,2.41741022,14.6059,26225,1.5,W0.8-5
TARA_041_SRF_5to20,2.658004009,14.6059,29401,2,W5-20
TARA_041_SRF_20to180,2.805479427,14.6067,17080,3,N20-180
TARA_041_SRF_180to2000,2.557043092,14.5741,6063,4,N180-2000
TARA_046_SRF_0.8to5,0.553098663,-0.6625,160848,1.5,W0.8-5
TARA_046_SRF_5to20,2.426584577,-0.6625,55881,2,W5-20
TARA_046_SRF_20to180,2.139572461,-0.6625,62099,3,N20-180
TARA_046_SRF_180to2000,0.519113518,-0.6623,24866,4,N180-2000
TARA_047_DCM_0.8to20,1.231471041,-2.0465,62896,2,W0.8-20
TARA_047_SRF_180to2000,1.710719348,-2.0409,6219,4,N180-2000
TARA_047_SRF_0.8to20,1.489812415,-2.0465,33091,2,W0.8-20
TARA_048_SRF_0.8to20,2.056915824,-9.3921,21087,2,W0.8-20
TARA_048_SRF_180to2000,1.494671838,-9.4153,2143,4,N180-2000
TARA_051_DCM_20to180,2.433509216,-21.4689,19865,3,N20-180
TARA_051_DCM_0.8to5,2.542573774,-21.4689,34010,1.5,W0.8-5
TARA_051_DCM_180to2000,1.226713789,-21.4836,2702,4,N180-2000
TARA_051_SRF_5to20,2.077475923,-21.4593,33274,2,N5-20
TARA_051_SRF_20to180,0.50911009,-21.4752,59391,3,N20-180
TARA_051_SRF_180to2000,1.181769931,-21.4994,15842,4,N180-2000
TARA_051_SRF_0.8to5,1.227498482,-21.5043,20508,1.5,W0.8-5
TARA_052_DCM_0.8to5,0.865183318,-16.9534,76907,1.5,W0.8-5
TARA_052_DCM_20to180,1.554028536,-16.953,37414,3,N20-180
TARA_052_DCM_180to2000,1.243860954,-16.9538,32103,4,N180-2000
TARA_052_SRF_0.8to5,2.674786769,-16.957,21268,1.5,W0.8-5
TARA_052_SRF_5to20,2.701101802,-16.9616,48198,2,N5-20
TARA_052_SRF_20to180,1.58037854,-16.9672,27702,3,N20-180
TARA_052_SRF_180to2000,1.056966502,-16.9567,53418,4,N180-2000
TARA_064_DCM_5to20,1.109397214,-29.5333,278522,2,W5-20
TARA_064_DCM_20to180,2.491427371,-29.4964,52498,3,N20-180
TARA_064_DCM_180to2000,2.16210618,-29.5015,5824,4,N180-2000
TARA_064_SRF_0.8to5,1.556784417,-29.5019,153009,1.5,W0.8-5
TARA_064_SRF_20to180,2.65607673,-29.4985,17998,3,N20-180
TARA_064_SRF_180to2000,0.760696133,-29.5018,140035,4,N180-2000
TARA_064_SRF_5to20,2.900562271,-29.4991,66234,2,N5-20
TARA_065_DCM_5to20,1.869069654,-35.2421,9847,2,W5-20
TARA_065_SRF_5to20,1.436363502,-35.1728,15826,2,W5-20
TARA_065_SRF_20to180,1.923015361,-35.2351,17090,3,N20-180
TARA_065_SRF_0.8to5,1.477199002,-35.1728,19775,1.5,W0.8-5
TARA_065_SRF_180to2000,1.439766827,-35.1808,31307,4,N180-2000
TARA_066_DCM_0.8to5,2.541502628,-34.8901,12944,1.5,W0.8-5
TARA_066_DCM_5to20,0.379943025,-34.8901,5049,2,W5-20
TARA_066_SRF_0.8to5,3.366356319,-34.9449,35930,1.5,W0.8-5
TARA_066_SRF_5to20,2.894740114,-34.9449,16704,2,W5-20
TARA_066_SRF_20to180,1.989774944,-34.8986,12323,3,N20-180
TARA_066_SRF_180to2000,0.475470327,-34.9363,7274,4,N180-2000
TARA_067_SRF_0.8to2000,2.2206889,-32.2401,133880,5,W>0.8
TARA_067_SRF_5to20,1.642029727,-32.12,176358,2,N5-20
TARA_067_SRF_20to180,2.184954955,-32.1745,39348,3,N20-180
TARA_067_SRF_180to2000,1.021576647,-32.2188,1559,4,N180-2000
TARA_067_SRF_0.8to5,2.11348206,-32.2401,263765,1.5,W0.8-5
TARA_068_DCM_0.8to5,1.553701628,-31.027,10865,1.5,W0.8-5
TARA_068_DCM_0.8to2000,1.689409523,-31.027,11018,5,W>0.8
TARA_068_DCM_5to20,2.550642556,-31.027,24394,2,W5-20
TARA_068_DCM_180to2000,1.28463526,-31.0292,63716,4,N180-2000
TARA_068_SRF_0.8to5,0.987213336,-31.0266,7918,1.5,W0.8-5
TARA_068_SRF_5to20,1.968802629,-31.0536,61451,2,N5-20
TARA_068_SRF_180to2000,1.692595935,-31.0507,6187,4,N180-2000
TARA_068_SRF_20to180,1.077853302,-31.0551,14950,3,N20-180
TARA_070_SRF_0.8to5,1.745822331,-20.4091,21262,1.5,W0.8-5
TARA_070_SRF_0.8to2000,2.416522752,-20.4091,10217,5,W>0.8
TARA_070_SRF_5to20,2.129653329,-20.4107,46328,2,N5-20
TARA_070_SRF_20to180,1.54840876,-20.3943,10327,3,N20-180
TARA_070_SRF_180to2000,0.209021892,-20.4035,12544,4,N180-2000
TARA_072_DCM_0.8to5,1.539523378,-8.7296,203698,1.5,W0.8-5
TARA_072_DCM_5to20,2.554754854,-8.6831,44019,2,N5-20
TARA_072_DCM_20to180,1.887430245,-8.6996,3918,3,N20-180
TARA_072_DCM_180to2000,0,-8.757,3082,4,N180-2000
TARA_072_SRF_20to180,2.471478218,-8.7484,7066,3,N20-180
TARA_072_SRF_180to2000,2.711922785,-8.7726,7053,4,N180-2000
TARA_072_SRF_5to20,1.44509555,-8.7277,40530,2,N5-20
TARA_076_DCM_5to20,2.717761517,-21.092,37095,2,N5-20
TARA_076_DCM_20to180,1.696709162,-21.0716,17640,3,N20-180
TARA_076_DCM_180to2000,1.715711412,-21.004,33786,4,N180-2000
TARA_076_SRF_180to2000,0.825731055,-20.9406,61192,4,N180-2000
TARA_076_SRF_0.8to2000,1.64914505,-20.9354,28799,5,W>0.8
TARA_076_SRF_20to180,2.618739049,-20.9514,15724,3,N20-180
TARA_076_SRF_5to20,0.768138902,-20.9724,69343,2,N5-20
TARA_078_DCM_0.8to2000,2.974903846,-30.1484,25058,5,W>0.8
TARA_078_DCM_20to180,2.60411832,-30.1403,16107,3,N20-180
TARA_078_DCM_180to2000,0,-30.052,6065,4,N180-2000
TARA_078_SRF_0.8to2000,2.113555172,-30.1367,11968,5,W>0.8
TARA_078_SRF_5to20,2.816247427,-30.2163,18900,2,N5-20
TARA_078_SRF_20to180,2.149002288,-30.1872,40990,3,N20-180
TARA_078_SRF_180to2000,1.558414454,-30.1506,57700,4,N180-2000
TARA_080_DCM_0.8to5,2.124590248,-40.6241,37421,1.5,W0.8-5
TARA_080_DCM_5to20,2.147773539,-40.6241,14485,2,W5-20
TARA_080_DCM_20to180,2.009185023,-40.6154,60098,3,N20-180
TARA_080_DCM_180to2000,1.342058051,-40.6083,20890,4,N180-2000
TARA_080_SRF_0.8to5,2.019739393,-40.6511,106024,1.5,W0.8-5
TARA_080_SRF_0.8to2000,1.222553984,-40.6511,79761,5,W>0.8
TARA_080_SRF_20to180,1.960121043,-40.6297,44138,3,N20-180
TARA_080_SRF_180to2000,2.134945275,-40.6487,57548,4,N180-2000
TARA_081_DCM_180to2000,1.950425861,-44.5455,62694,4,N180-2000
TARA_081_DCM_5to20,2.008548268,-44.5838,630858,2,N5-20
TARA_081_DCM_20to180,2.608487239,-44.5582,38952,3,N20-180
TARA_081_SRF_0.8to5,2.837292192,-44.5342,36450,1.5,W0.8-5
TARA_081_SRF_20to180,1.615413967,-44.6241,368397,3,N20-180
TARA_082_DCM_20to180,2.284559326,-47.2007,17997,3,N20-180
TARA_082_DCM_0.8to2000,2.562976952,-47.2007,77067,5,W>0.8
TARA_082_DCM_180to2000,2.641771671,-47.2116,11392,4,N180-2000
TARA_082_SRF_0.8to5,1.971483141,-47.1863,10449,1.5,W0.8-5
TARA_082_SRF_5to20,0.432614029,-47.2002,876271,2,N5-20
TARA_082_SRF_180to2000,2.327728624,-47.1899,11903,4,N180-2000
TARA_082_SRF_0.8to2000,0.340363599,-47.1863,347372,5,W>0.8
TARA_082_SRF_20to180,2.082938092,-47.1966,34140,3,N20-180
TARA_083_SRF_0.8to5,1.438105203,-54.3739,190638,1.5,W0.8-5
TARA_083_SRF_5to20,1.690928992,-54.3739,193853,2,W5-20
TARA_083_SRF_180to2000,2.337820941,-54.3826,15114,4,N180-2000
TARA_083_SRF_0.8to2000,1.489065798,-54.3739,910678,5,W>0.8
TARA_084_SRF_0.8to5,2.554344377,-60.2287,35943,1.5,W0.8-5
TARA_084_SRF_0.8to2000,3.076856462,-60.2287,60799,5,W>0.8
TARA_084_SRF_20to180,2.432655902,-60.3046,231942,3,N20-180
TARA_084_SRF_180to2000,2.13864033,-60.2584,2916,4,N180-2000
TARA_084_SRF_5to20,2.599493929,-60.4016,200764,2,N5-20
TARA_085_DCM_0.8to5,2.973857151,-62.2231,87605,1.5,W0.8-5
TARA_085_DCM_0.8to2000,2.803926565,-62.2231,19107,5,W>0.8
TARA_085_DCM_5to20,2.477376615,-62.21,74196,2,N5-20
TARA_085_DCM_20to180,2.280077309,-62.2024,90680,3,N20-180
TARA_085_DCM_180to2000,1.04935817,-62.1943,4708,4,N180-2000
TARA_085_SRF_0.8to2000,2.326890979,-62.0385,15552,5,W>0.8
TARA_085_SRF_20to180,2.054207613,-62.14,156760,3,N20-180
TARA_085_SRF_180to2000,0.942219283,-62.0773,34589,4,N180-2000
TARA_085_SRF_0.8to5,2.698816884,-62.0385,10852,1.5,W0.8-5
TARA_092_SRF_0.8to5,2.879063305,-33.6895,30645,1.5,W0.8-5
TARA_092_SRF_0.8to2000,0.894262109,-33.6895,199811,5,W>0.8
TARA_092_SRF_5to20,1.669118629,-33.6737,135439,2,N5-20
TARA_092_SRF_20to180,1.602149795,-33.6771,99363,3,N20-180
TARA_092_SRF_180to2000,1.408044035,-33.688,134265,4,N180-2000
TARA_093_DCM_0.8to5,3.223677033,-33.9116,29585,1.5,W0.8-5
TARA_093_DCM_180to2000,0.697856442,-33.9477,52711,4,N180-2000
TARA_093_DCM_5to20,2.793568848,-33.9116,12084,2,W5-20
TARA_093_SRF_20to180,0.156572032,-34.0614,73616,3,N20-180
TARA_093_SRF_0.8to2000,0.612746895,-34.0614,76528,5,W>0.8
TARA_093_SRF_5to20,0.449111055,-34.0614,45385,2,W5-20
TARA_093_SRF_180to2000,0.447111889,-34.0374,54817,4,N180-2000
TARA_093_SRF_0.8to5,1.698752033,-34.0614,25501,1.5,W0.8-5
TARA_098_DCM_5to20,2.621724875,-25.826,31354,2,W5-20
TARA_098_DCM_20to180,1.931061586,-25.8162,49914,3,N20-180
TARA_098_DCM_180to2000,1.292642205,-25.8162,63567,4,N180-2000
TARA_098_DCM_0.8to5,2.652375349,-25.826,36949,1.5,W0.8-5
TARA_098_SRF_5to20,2.195437512,-25.8051,39643,2,W5-20
TARA_098_SRF_20to180,2.193907407,-25.8105,14404,3,N20-180
TARA_098_SRF_180to2000,0.250804966,-25.8073,81583,4,N180-2000
TARA_100_DCM_0.8to5,2.932420268,-12.9723,17856,1.5,W0.8-5
TARA_100_DCM_0.8to2000,2.913976858,-12.9723,62363,5,W>0.8
TARA_100_DCM_5to20,2.215065622,-12.9723,20739,2,W5-20
TARA_100_DCM_20to180,2.192535832,-12.9119,25474,3,N20-180
TARA_100_DCM_180to2000,2.181889039,-12.9214,23046,4,N180-2000
TARA_100_SRF_0.8to5,2.039775499,-13.0023,14739,1.5,W0.8-5
TARA_100_SRF_0.8to2000,2.127668932,-13.0023,16757,5,W>0.8
TARA_100_SRF_5to20,2.274456219,-12.9488,79315,2,N5-20
TARA_100_SRF_20to180,2.832674549,-12.991,73402,3,N20-180
TARA_100_SRF_180to2000,1.183226139,-12.9359,107271,4,N180-2000
TARA_102_DCM_0.8to5,2.385837505,-5.2669,26605,1.5,W0.8-5
TARA_102_DCM_0.8to2000,1.782508404,-5.2669,56840,5,W>0.8
TARA_102_DCM_5to20,1.907913496,-5.2669,95227,2,W5-20
TARA_102_DCM_20to180,2.419444701,-5.2686,15923,3,N20-180
TARA_102_DCM_180to2000,1.275005985,-5.2692,4050,4,N180-2000
TARA_102_SRF_0.8to5,2.256673074,-5.2529,8947,1.5,W0.8-5
TARA_102_SRF_0.8to2000,2.36621711,-5.2529,14845,5,W>0.8
TARA_102_SRF_5to20,2.401893969,-5.252,260956,2,N5-20
TARA_102_SRF_20to180,2.430089723,-5.2514,20979,3,N20-180
TARA_102_SRF_180to2000,1.208441896,-5.2537,110080,4,N180-2000
TARA_109_DCM_20to180_R2,0.942089367,2.0218,80025,3,N20-180
TARA_109_DCM_0.8to5,2.576467802,2.0299,13125,1.5,W0.8-5
TARA_109_DCM_0.8to2000,2.975025707,2.0299,14699,5,W>0.8
TARA_109_DCM_20to180_R1,2.027358127,2.0218,130445,3,N20-180
TARA_109_SRF_0.8to5,2.097377471,1.9928,15101,1.5,W0.8-5
TARA_109_SRF_0.8to2000,2.19093745,1.9928,26291,5,W>0.8
TARA_109_SRF_5to20,1.660607308,2.0399,64829,2,N5-20
TARA_109_SRF_20to180,2.151614669,1.9958,29510,3,N20-180
TARA_109_SRF_180to2000,1.366480297,2.0574,48568,4,N180-2000
TARA_110_DCM_0.8to5,1.212341598,-1.9002,74418,1.5,W0.8-5
TARA_110_DCM_0.8to2000,2.683521779,-1.9002,21454,5,W>0.8
TARA_110_DCM_180to2000,2.28387541,-1.8155,15849,4,N180-2000
TARA_110_SRF_0.8to5,2.266433524,-2.0133,26768,1.5,W0.8-5
TARA_110_SRF_0.8to2000,2.909446219,-2.0133,40810,5,W>0.8
TARA_110_SRF_5to20,2.235154098,-2.0133,26118,2,W5-20
TARA_110_SRF_20to180,2.680714657,-1.9778,21487,3,N20-180
TARA_110_SRF_180to2000,0,-1.9389,2895,4,N180-2000
TARA_111_DCM_0.8to2000,2.402947907,-16.9587,26430,5,W>0.8
TARA_111_DCM_20to180,2.259573911,-16.9763,54774,3,N20-180
TARA_111_DCM_180to2000,1.662945814,-16.9741,33778,4,N180-2000
TARA_111_DCM_0.8to5,2.736323731,-16.9587,61117,1.5,W0.8-5
TARA_111_DCM_5to20,1.564694064,-16.9587,56466,2,W5-20
TARA_111_SRF_0.8to2000,2.37873985,-16.9601,14230,5,W>0.8
TARA_111_SRF_20to180,2.655423211,-16.9581,20069,3,N20-180
TARA_111_SRF_180to2000,1.876165325,-16.9554,36709,4,N180-2000
TARA_111_SRF_0.8to5,2.210537012,-16.9601,31791,1.5,W0.8-5
TARA_011_SRF_0.8to5,2.524702196,41.6686,132554,1.5,W0.8-5
TARA_011_SRF_5to20,2.805063463,41.6686,284071,2,W5-20
TARA_122_SRF_0.8to5,2.679489429,-8.9971,13131,1.5,W0.8-5
TARA_122_SRF_5to20,2.572094299,-8.996,58991,2,N5-20
TARA_122_SRF_20to180,0.938005869,-9.006,155703,3,N20-180
TARA_122_SRF_180to2000,1.076950852,-8.9948,1419,4,N180-2000
TARA_122_SRF_0.8to2000,2.482776449,-8.9971,13834,5,W>0.8
TARA_123_SRF_0.8to2000,2.686282093,-8.9068,16898,5,W>0.8
TARA_123_SRF_5to20,1.792838104,-8.8984,82892,2,N5-20
TARA_123_SRF_20to180,2.38596246,-8.9056,47213,3,N20-180
TARA_123_SRF_0.8to5,2.534587967,-8.9068,14320,1.5,W0.8-5
TARA_123_SRF_180to2000,1.491905423,-8.8932,2809,4,N180-2000
TARA_124_SRF_0.8to5,2.101553246,-9.1504,12144,1.5,W0.8-5
TARA_124_SRF_0.8to2000,2.163105073,-9.1504,15970,5,W>0.8
TARA_124_SRF_20to180,0.731240423,-9.1463,28807,3,N20-180
TARA_124_SRF_180to2000,1.362417201,-9.1508,24635,4,N180-2000
TARA_124_SRF_5to20,1.210938651,-9.1504,18222,2,W5-20
TARA_125_SRF_0.8to5,2.909355113,-8.9111,17675,1.5,W0.8-5
TARA_125_SRF_0.8to2000,2.700391323,-8.9111,11293,5,W>0.8
TARA_125_SRF_5to20,1.188271277,-8.9124,71501,2,N5-20
TARA_125_SRF_20to180,1.431571007,-8.894,16011,3,N20-180
TARA_125_SRF_180to2000,1.39945347,-8.892,48456,4,N180-2000
TARA_128_DCM_0.8to5,2.504884847,0.0222,11405,1.5,W0.8-5
TARA_128_DCM_0.8to2000,2.501470754,0.0222,18012,5,W>0.8
TARA_128_DCM_5to20,3.16668565,0.001,46190,2,N5-20
TARA_128_DCM_20to180,2.288009121,0.0396,13242,3,N20-180
TARA_128_DCM_180to2000,0,0.0348,5627,4,N180-2000
TARA_128_SRF_0.8to5,2.322263315,0.0003,7662,1.5,W0.8-5
TARA_128_SRF_0.8to2000,2.805418902,0.0003,13080,5,W>0.8
TARA_128_SRF_5to20,2.679336171,0.0078,64122,2,N5-20
TARA_128_SRF_20to180,1.556176273,0.008,106193,3,N20-180
TARA_128_SRF_180to2000,0.569900874,0.0193,6577,4,N180-2000
TARA_131_DCM_0.8to5,2.224112279,22.7901,16421,1.5,W0.8-5
TARA_131_DCM_0.8to2000,3.201382541,22.7901,90328,5,W>0.8
TARA_131_DCM_5to20,1.017486995,22.7281,210867,2,N5-20
TARA_131_DCM_180to2000,0.180606766,22.7478,6851,4,N180-2000
TARA_131_DCM_20to180,1.992409433,22.7384,30470,3,N20-180
TARA_131_SRF_0.8to5,2.903372252,22.7598,109618,1.5,W0.8-5
TARA_131_SRF_0.8to2000,1.413278494,22.7598,216660,5,W>0.8
TARA_131_SRF_5to20,0.951560355,22.7091,163312,2,N5-20
TARA_131_SRF_20to180,1.090933759,22.7267,128591,3,N20-180
TARA_131_SRF_180to2000,0.346363657,22.7511,573745,4,N180-2000
TARA_132_DCM_0.8to5,3.179869277,31.5168,88988,1.5,W0.8-5
TARA_132_DCM_0.8to2000,3.455204083,31.5168,72602,5,W>0.8
TARA_132_DCM_5to20,2.949499092,31.471,82822,2,N5-20
TARA_132_DCM_180to2000,1.304286974,31.5237,151471,4,N180-2000
TARA_132_SRF_0.8to5,2.494953361,31.5213,60730,1.5,W0.8-5
TARA_132_SRF_0.8to2000,2.264938251,31.5213,26963,5,W>0.8
TARA_132_SRF_5to20,2.230153656,31.4868,64845,2,N5-20
TARA_132_SRF_20to180,2.553629156,31.4901,15273,3,N20-180
TARA_132_SRF_180to2000,1.843807272,31.5024,171549,4,N180-2000
TARA_135_DCM_0.8to5,2.101462153,32.931,44984,1.5,W0.8-5
TARA_135_DCM_0.8to2000,2.17929358,32.931,86002,5,W>0.8
TARA_135_DCM_5to20,1.413331793,32.9903,223176,2,N5-20
TARA_135_DCM_20to180,1.159679051,32.9909,1728174,3,N20-180
TARA_135_DCM_180to2000,1.519250207,32.9916,8209,4,N180-2000
TARA_135_SRF_0.8to5,2.056644244,32.9986,37993,1.5,W0.8-5
TARA_135_SRF_0.8to2000,2.813265033,32.9986,26403,5,W>0.8
TARA_135_SRF_5to20,0.66600791,33.0007,734535,2,N5-20
TARA_135_SRF_20to180,0.861053184,33.02,151307,3,N20-180
TARA_135_SRF_180to2000,0.450161808,33.008,41467,4,N180-2000
TARA_136_SRF_0.8to5,2.313595828,17.0854,12927,1.5,W0.8-5
TARA_136_SRF_0.8to2000,1.384306677,17.0854,23404,5,W>0.8
TARA_136_SRF_5to20,2.473499923,17.0149,49957,2,N5-20
TARA_136_SRF_20to180,2.058326209,17.0552,18015,3,N20-180
TARA_136_SRF_180to2000,1.141636326,17.0769,12018,4,N180-2000
TARA_137_DCM_0.8to2000,1.937541273,14.2075,63918,5,W>0.8
TARA_137_DCM_5to20,2.657257473,14.1957,44754,2,N5-20
TARA_137_DCM_20to180,2.269228516,14.1987,22346,3,N20-180
TARA_137_DCM_180to2000,1.875561349,14.2005,8748,4,N180-2000
TARA_137_SRF_0.8to5,2.336193849,14.2035,17126,1.5,W0.8-5
TARA_137_SRF_0.8to2000,2.686800626,14.2035,26194,5,W>0.8
TARA_137_SRF_5to20,2.200138132,14.1853,12332,2,N5-20
TARA_137_SRF_20to180,2.17330815,14.1927,18764,3,N20-180
TARA_137_SRF_180to2000,0,14.2004,3226,4,N180-2000
TARA_138_DCM_0.8to5,2.568169868,6.3378,14353,1.5,W0.8-5
TARA_138_DCM_5to20,2.593709758,6.3356,57050,2,N5-20
TARA_138_DCM_180to2000,0.673780928,6.3363,3147,4,N180-2000
TARA_138_SRF_5to20,2.693750353,6.3305,29451,2,N5-20
TARA_138_SRF_20to180,1.182120806,6.3199,36227,3,N20-180
TARA_138_SRF_180to2000,1.316387706,6.3306,51328,4,N180-2000
TARA_139_SRF_0.8to5,2.864937823,6.4998,24352,1.5,W0.8-5
TARA_139_SRF_0.8to2000,2.647250658,6.4998,33891,5,W>0.8
TARA_139_SRF_5to20,1.806322984,6.4808,107418,2,N5-20
TARA_139_SRF_180to2000,1.916063306,6.4946,102760,4,N180-2000
TARA_142_DCM_5to20,2.135622261,25.6168,20591,2,W5-20
TARA_142_DCM_20to180,2.274263081,25.5921,34043,3,N20-180
TARA_142_DCM_180to2000,1.603672733,25.5773,21606,4,N180-2000
TARA_142_DCM_0.8to5,2.325239,25.6168,27270,1.5,W0.8-5
TARA_142_SRF_0.8to2000,1.612982597,25.5264,66965,5,W>0.8
TARA_142_SRF_20to180,2.361787486,25.5877,31651,3,N20-180
TARA_142_SRF_180to2000,0.878045776,25.5593,67334,4,N180-2000
TARA_142_SRF_0.8to5,1.491116656,25.5264,16914,1.5,W0.8-5
TARA_143_DCM_5to20,2.408416533,29.8103,53746,2,N5-20
TARA_143_DCM_20to180,2.056553228,29.7902,24325,3,N20-180
TARA_143_DCM_180to2000,2.412654779,29.8253,16653,4,N180-2000
TARA_143_SRF_5to20,2.467066172,29.7186,45973,2,N5-20
TARA_143_SRF_20to180,0.636692122,29.7812,92929,3,N20-180
TARA_143_SRF_180to2000,2.068358075,29.6721,12758,4,N180-2000
TARA_144_SRF_0.8to5,0.18556068,36.3698,21089,1.5,W0.8-5
TARA_144_SRF_0.8to2000,2.144951649,36.3698,10043,5,W>0.8
TARA_144_SRF_20to180,1.465148225,36.3385,54385,3,N20-180
TARA_144_SRF_180to2000,2.078988952,36.345,18450,4,N180-2000
TARA_144_SRF_5to20,2.007447907,36.3489,25139,2,N5-20
TARA_145_SRF_0.8to5,1.883029992,39.2305,114793,1.5,W0.8-5
TARA_145_SRF_0.8to2000,1.33553151,39.2305,477660,5,W>0.8
TARA_145_SRF_5to20,1.864888286,39.194,482549,2,N5-20
TARA_145_SRF_20to180,2.036682205,39.2077,263736,3,N20-180
TARA_145_SRF_180to2000,1.571276599,39.2214,58691,4,N180-2000
TARA_146_SRF_0.8to5,1.927292717,34.6712,11003,1.5,W0.8-5
TARA_146_SRF_5to20,2.278039034,34.8217,48511,2,N5-20
TARA_146_SRF_20to180,2.327800226,34.7942,12374,3,N20-180
TARA_146_SRF_180to2000,1.492435859,34.7631,35909,4,N180-2000
TARA_147_SRF_0.8to5,1.139269251,33.061,18134,1.5,W0.8-5
TARA_147_SRF_0.8to2000,2.653495568,33.061,9321,5,W>0.8
TARA_147_SRF_5to20,2.449615786,32.9701,35230,2,N5-20
TARA_147_SRF_20to180,2.298936849,32.9997,11139,3,N20-180
TARA_147_SRF_180to2000,1.574808311,33.0096,88113,4,N180-2000
TARA_148_SRF_0.8to2000,2.385188536,31.6948,15465,5,W>0.8
TARA_148_SRF_5to20,2.434758082,31.8103,85428,2,N5-20
TARA_148_SRF_20to180,2.015567676,31.7913,22374,3,N20-180
TARA_148_SRF_180to2000,1.782807992,31.7432,105892,4,N180-2000
TARA_149_SRF_5to20,2.1247176,34.0533,140169,2,N5-20
TARA_149_SRF_20to180,1.924385001,34.0639,15232,3,N20-180
TARA_149_SRF_180to2000,1.960845018,34.0823,3661,4,N180-2000
TARA_150_DCM_0.8to5,2.687947756,35.8427,11848,1.5,W0.8-5
TARA_150_DCM_5to20,2.156502004,35.8777,52188,2,N5-20
TARA_150_DCM_20to180,0.87669686,35.8605,13009,3,N20-180
TARA_150_DCM_180to2000,0.671495512,35.7867,28338,4,N180-2000
TARA_150_SRF_0.8to5,2.264991736,35.9346,7623,1.5,W0.8-5
TARA_150_SRF_0.8to2000,2.256809947,35.9346,15049,5,W>0.8
TARA_150_SRF_5to20,1.95202816,35.8641,88767,2,N5-20
TARA_150_SRF_20to180,2.336397679,35.8913,9024,3,N20-180
TARA_150_SRF_180to2000,1.23945675,35.9167,13917,4,N180-2000
TARA_151_DCM_20to180,2.761635488,36.1736,25412,3,N20-180
TARA_151_DCM_180to2000,1.234207715,36.1765,8307,4,N180-2000
TARA_151_DCM_0.8to2000,0.495101293,36.1811,51261,5,W>0.8
TARA_151_SRF_0.8to5,1.230252859,36.1715,24034,1.5,W0.8-5
TARA_151_SRF_0.8to2000,1.587695217,36.1715,33347,5,W>0.8
TARA_151_SRF_20to180,1.697444393,36.15,44701,3,N20-180
TARA_151_SRF_180to2000,2.105376877,36.1631,10814,4,N180-2000
TARA_151_SRF_5to20,3.040461626,36.1399,45462,2,N5-20
TARA_152_MIX_0.8to2000_R1,1.96064448,43.7899,31677,5,W>0.8
TARA_152_MIX_0.8to2000_R2,0.182076631,43.7899,223652,5,W>0.8
TARA_152_MIX_0.8to2000_R3,2.622082323,43.7899,47212,5,W>0.8
TARA_152_MIX_0.8to5,2.436982342,43.7056,19305,1.5,W0.8-5
TARA_152_MIX_0.8to2000_R4,2.436787481,43.7056,37233,5,W>0.8
TARA_152_MIX_5to20,2.885314947,43.7056,16460,2,W5-20
TARA_152_MIX_20to180,2.642247044,43.7421,25736,3,N20-180
TARA_152_SRF_0.8to5,2.26375972,43.6792,12487,1.5,W0.8-5
TARA_152_SRF_0.8to2000,2.722687761,43.6792,12992,5,W>0.8
TARA_152_SRF_20to180,2.877307442,43.6904,10631,3,N20-180
TARA_152_SRF_180to2000,0.893177658,43.6825,13269,4,N180-2000
TARA_152_SRF_5to20,2.067058105,43.6858,127076,2,N5-20
TARA_153_MIX_0.8to5,2.524356958,44.0342,29963,1.5,W0.8-5
TARA_153_MIX_0.8to2000_R1,1.285116275,44.0342,74283,5,W>0.8
TARA_153_MIX_20to180_R1,1.739179963,44.0722,61338,3,N20-180
TARA_153_MIX_180to2000_R1,2.153739442,44.0722,26612,4,N180-2000
TARA_153_MIX_0.8to2000_R2,2.829457464,44.0497,18366,5,W>0.8
TARA_153_MIX_5to20,1.942008708,44.0497,37303,2,W5-20
TARA_153_MIX_20to180_R2,1.909468629,44.074,21155,3,N20-180
TARA_153_MIX_180to2000_R2,0.382116586,44.0852,227817,4,N180-2000
TARA_155_DCM_0.8to2000,2.529851446,54.5451,98863,5,W>0.8
TARA_155_DCM_3to20_R2a,2.525696972,54.5451,61643,2,W3-20
TARA_155_DCM_3to20_R2b,1.295027213,54.5451,1345753,2,W3-20
TARA_155_DCM_20to180,1.739326369,54.5131,128159,3,N20-180
TARA_155_DCM_180to2000,2.294592179,54.5237,27116,4,N180-2000
TARA_155_SRF_0.8to2000,2.465062887,54.5305,31288,5,W>0.8
TARA_155_SRF_3to20,2.747388685,54.5305,36690,2,W3-20
TARA_155_SRF_20to180,2.309554304,54.5636,44996,3,N20-180
TARA_155_SRF_180to2000,1.674645222,54.5651,6983,4,N180-2000
TARA_158_DCM_0.8to2000,1.497022156,67.161,91851,5,W>0.8
TARA_158_DCM_3to20,1.429670632,67.161,104676,2,W3-20
TARA_158_DCM_20to180,2.537869373,67.1853,15018,3,N20-180
TARA_158_DCM_180to2000,0.392883844,67.1574,7997,4,N180-2000
TARA_158_SRF_0.8to2000,2.392498824,67.141,36372,5,W>0.8
TARA_158_SRF_3to20,2.311702707,67.141,48769,2,W3-20
TARA_158_SRF_20to180,2.854302676,67.1179,14883,3,N20-180
TARA_158_SRF_180to2000_R1,0,67.1188,193,4,N180-2000
TARA_163_SRF_0.8to2000,2.052413655,76.1825,5115,5,W>0.8
TARA_163_SRF_3to20,2.618421503,76.1825,24435,2,W3-20
TARA_163_SRF_180to2000,2.370880318,76.1872,15851,4,N180-2000
TARA_168_DCM_0.8to2000,1.957053635,72.5432,109185,5,W>0.8
TARA_168_DCM_3to20,1.395335355,72.5432,226816,2,W3-20
TARA_168_DCM_20to180,2.134831943,72.5123,67486,3,N20-180
TARA_168_DCM_180to2000,0.421903029,72.6025,50185,4,N180-2000
TARA_168_MIX_0.8to2000,1.986432388,72.5199,93752,5,W>0.8
TARA_168_MIX_3to20,1.907576154,72.5199,158334,2,W3-20
TARA_168_MIX_20to180,2.104514694,72.5144,63756,3,N20-180
TARA_168_MIX_180to2000,1.350856204,72.5557,13442,4,N180-2000
TARA_168_SRF_0.8to2000,2.28691793,72.5128,71432,5,W>0.8
TARA_168_SRF_3to20,1.993142921,72.5128,104076,2,W3-20
TARA_168_SRF_20to180,1.96974296,72.6406,118320,3,N20-180
TARA_168_SRF_180to2000,0.804651481,72.5977,37668,4,N180-2000
TARA_173_DCM_0.8to2000,2.288552345,78.9354,137860,5,W>0.8
TARA_173_DCM_3to20,2.313427938,78.9354,77119,2,W3-20
TARA_173_DCM_180to2000,1.271609044,78.9319,4837,4,N180-2000
TARA_173_SRF_0.8to2000,2.254927393,78.9564,152945,5,W>0.8
TARA_173_SRF_3to20,2.607388998,78.9564,38571,2,W3-20
TARA_173_SRF_20to180,1.909927037,78.9354,3707399,3,N20-180
TARA_173_SRF_180to2000,2.591921071,78.9299,76957,4,N180-2000
TARA_175_MIX_180to2000,1.868939965,79.4865,6622,4,N180-2000
TARA_175_MIX_0.8to2000,2.900098614,79.3349,47305,5,W>0.8
TARA_175_MIX_3to20,3.464110058,79.3349,38747,2,W3-20
TARA_175_MIX_20to180,2.808477616,79.3473,174459,3,N20-180
TARA_175_SRF_3to20,1.229728352,79.2233,54469,2,W3-20
TARA_175_SRF_180to2000,0.465625348,79.2263,5318,4,N180-2000
TARA_175_SRF_0.8to2000,2.785028185,79.2233,41867,5,W>0.8
TARA_175_SRF_20to180,1.117533665,79.2009,85198,3,N20-180
TARA_175_ZZZ_0.8to2000,3.781861558,79.2026,112647,5,W>0.8
TARA_175_ZZZ_3to20,3.861876096,79.2026,236865,2,W3-20
TARA_178_SRF_0.8to2000,2.871705812,77.1604,12916,5,W>0.8
TARA_178_SRF_3to20,2.949121946,77.1604,17565,2,W3-20
TARA_178_SRF_20to180,2.054428,77.2302,85375,3,N20-180
TARA_178_SRF_180to2000,0,77.3047,3828,4,N180-2000
TARA_180_DCM_0.8to2000,2.203545641,74.8283,163291,5,W>0.8
TARA_180_DCM_3to20,3.735114346,74.8283,247416,2,W3-20
TARA_180_DCM_20to180,0.874299833,74.8203,3294546,3,N20-180
TARA_180_DCM_180to2000,2.565598251,74.8237,18742,4,N180-2000
TARA_180_SRF_0.8to2000,1.2817062,74.8023,395399,5,W>0.8
TARA_180_SRF_3to20,3.392191742,74.8023,92405,2,W3-20
TARA_180_SRF_20to180,0.553817732,74.8039,10103067,3,N20-180
TARA_180_SRF_180to2000,1.85805535,74.8063,142767,4,N180-2000
TARA_188_DCM_0.8to2000,3.106457793,78.3555,63488,5,W>0.8
TARA_188_DCM_3to20,3.30463623,78.3555,68896,2,W3-20
TARA_188_DCM_20to180,2.670953304,78.3322,160478,3,N20-180
TARA_188_DCM_180to2000,2.833460939,78.3208,44311,4,N180-2000
TARA_188_SRF_0.8to2000,3.081324319,78.2518,73083,5,W>0.8
TARA_188_SRF_3to20,2.941608551,78.2518,52188,2,W3-20
TARA_188_SRF_20to180,2.558300436,78.3389,538693,3,N20-180
TARA_188_SRF_180to2000,2.850421147,78.2943,53357,4,N180-2000
TARA_189_DCM_3to20,2.010145701,77.9668,95934,2,W3-20
TARA_189_DCM_20to180,0.719387228,77.9464,931903,3,N20-180
TARA_189_DCM_180to2000,0,77.9401,4102,4,N180-2000
TARA_189_SRF_0.8to2000,1.253358132,77.9028,186103,5,W>0.8
TARA_189_SRF_3to20,2.550516508,77.9028,32606,2,W3-20
TARA_189_SRF_20to180,0.58296168,77.9378,5612513,3,N20-180
TARA_189_SRF_180to2000,0,77.9352,3244,4,N180-2000
TARA_191_SRF_20to180,2.268512455,71.5402,188205,3,N20-180
TARA_191_SRF_180to2000,1.564536036,71.5719,29283,4,N180-2000
TARA_193_SRF_0.8to2000,2.882361552,71.0704,264571,5,W>0.8
TARA_193_SRF_3to20,2.767188405,71.0704,151747,2,W3-20
TARA_193_SRF_20to180,1.507114829,71.1493,1257432,3,N20-180
TARA_193_SRF_180to2000,1.632463828,71.1065,7139,4,N180-2000
TARA_194_DCM_0.8to2000,3.449490198,73.3275,55049,5,W>0.8
TARA_194_DCM_20to180,3.339582358,73.3727,264111,3,N20-180
TARA_194_DCM_180to2000,0.827973399,73.3626,5367,4,N180-2000
TARA_194_DCM_3to20,2.997934976,73.3275,48216,2,W3-20
TARA_194_SRF_0.8to2000,2.883632624,73.3833,34871,5,W>0.8
TARA_194_SRF_3to20,2.092603466,73.3833,56079,2,W3-20
TARA_194_SRF_20to180,2.873793559,73.3826,220959,3,N20-180
TARA_194_SRF_180to2000,1.611655836,73.3802,41457,4,N180-2000
TARA_196_SRF_0.8to2000,1.568321609,71.8895,168520,5,W>0.8
TARA_196_SRF_20to180,0.925804628,71.9199,481205,3,N20-180
TARA_196_SRF_180to2000,2.021502357,71.912,38485,4,N180-2000
TARA_201_DCM_0.8to2000,3.01268606,74.3386,103307,5,W>0.8
TARA_201_DCM_3to20,3.453378187,74.3386,195715,2,W3-20
TARA_201_DCM_20to180,1.847583273,74.3207,285530,3,N20-180
TARA_201_DCM_180to2000,2.249727234,74.3207,140827,4,N180-2000
TARA_201_SRF_0.8to2000,1.966264693,74.2987,169567,5,W>0.8
TARA_201_SRF_3to20,1.713245678,74.2987,330288,2,W3-20
TARA_201_SRF_20to180,1.651826793,74.3253,96235,3,N20-180
TARA_201_SRF_180to2000,1.939921174,74.3253,59377,4,N180-2000
TARA_205_SRF_0.8to2000,2.86791991,72.4693,137796,5,W>0.8
TARA_205_SRF_3to20,3.017384726,72.4693,189871,2,W3-20
TARA_205_SRF_20to180,2.734228933,72.4688,403827,3,N20-180
TARA_205_SRF_180to2000,0.222811692,72.4376,8439,4,N180-2000
TARA_206_SRF_0.8to2000,2.675563536,70.9574,101698,5,W>0.8
TARA_206_SRF_3to20,2.392350449,70.9574,139135,2,W3-20
TARA_206_SRF_20to180,1.6585183,70.9372,89843,3,N20-180
TARA_206_SRF_180to2000,1.259550725,70.971,42374,4,N180-2000
TARA_208_SRF_0.8to2000,3.754946071,69.1136,152949,5,W>0.8
TARA_208_SRF_3to20,3.114931164,69.1136,92189,2,W3-20
TARA_208_SRF_20to180,1.39741632,69.1186,68768,3,N20-180
TARA_208_SRF_180to2000,1.515811826,69.1163,48903,4,N180-2000
TARA_209_SRF_0.8to2000,3.078412895,64.7127,115262,5,W>0.8
TARA_209_SRF_3to20,2.719191474,64.7127,250710,2,W3-20
TARA_209_SRF_20to180,2.447907624,64.7656,273119,3,N20-180
TARA_209_SRF_180to2000,1.04814925,64.7534,13971,4,N180-2000
TARA_210_SRF_0.8to2000,1.413284294,61.5427,106045,5,W>0.8
TARA_210_SRF_3to20,2.892596073,61.5427,88607,2,W3-20
TARA_210_SRF_20to180,1.990578824,61.5214,158034,3,N20-180
TARA_210_SRF_180to2000,0.779478216,61.5267,2419,4,N180-2000
TARA_011_SRF_0.22to1.6,2.736847323,41.6686,123096,1,0.22-1.6
TARA_015_SRF_0.22to1.6,2.225334043,40.0154,958561,1,0.22-1.6
TARA_016_SRF_0.22to1.6,2.364263459,37.4956,740068,1,0.22-1.6
TARA_018_SRF_0.22to1.6,2.25024615,35.759,83372,1,0.22-1.6
TARA_019_SRF_0.22to1.6,0.557822112,34.2116,583901,1,0.22-1.6
TARA_022_DCM_0.22to1.6,3.361418024,39.5705,1421182,1,0.22-1.6
TARA_025_DCM_0.22to1.6,2.575879634,39.3991,456245,1,0.22-1.6
TARA_031_SRF_0.22to1.6,2.681854354,27.16,190635,1,0.22-1.6
TARA_032_SRF_0.22to1.6,2.198611061,23.36,207260,1,0.22-1.6
TARA_033_SRF_0.22to1.6,1.845844864,21.9467,251512,1,0.22-1.6
TARA_039_DCM_0.22to1.6,2.640278606,18.5839,307858,1,0.22-1.6
TARA_039_SRF_0.22to1.6,2.75208947,18.5918,749074,1,0.22-1.6
TARA_040_SRF_0.22to1.6,2.705860613,17.4855,384037,1,0.22-1.6
TARA_040_ZZZ_0.22to1.6,2.842408079,17.4847,2574252,1,0.22-1.6
TARA_041_DCM_0.22to1.6,1.763826599,14.5536,508388,1,0.22-1.6
TARA_041_SRF_0.22to1.6,2.738227405,14.6059,542905,1,0.22-1.6
TARA_042_DCM_0.22to1.6,1.970692881,5.9998,101547,1,0.22-1.6
TARA_042_SRF_0.22to1.6,1.858756328,6.0001,205360,1,0.22-1.6
TARA_043_SRF_0.22to1.6,2.233422498,4.6599,193336,1,0.22-1.6
TARA_044_SRF_0.22to1.6,2.072494425,2.815,297148,1,0.22-1.6
TARA_046_SRF_0.22to1.6,2.825205431,-0.6625,224394,1,0.22-1.6
TARA_047_SRF_0.22to1.6,2.57706085,-2.0465,140428,1,0.22-1.6
TARA_049_SRF_0.22to1.6,0.7457075,-16.8084,371557,1,0.22-1.6
TARA_050_SRF_0.22to1.6,1.637066467,-21.4966,462603,1,0.22-1.6
TARA_051_SRF_0.22to1.6,1.712566646,-21.5043,421416,1,0.22-1.6
TARA_052_DCM_0.22to1.6,1.323772643,-16.9534,589558,1,0.22-1.6
TARA_052_SRF_0.22to1.6,2.338888101,-16.957,211992,1,0.22-1.6
TARA_053_SRF_0.22to1.6,2.15649957,-13.0833,153269,1,0.22-1.6
TARA_054_SRF_0.22to1.6,1.74481058,-12.807,373834,1,0.22-1.6
TARA_067_SRF_0.22to3,1.779400215,-32.2401,1876827,1,0.22-3
TARA_068_DCM_0.22to3,2.799090731,-31.027,326792,1,0.22-3
TARA_068_SRF_0.22to3,2.319587569,-31.0266,495575,1,0.22-3
TARA_070_SRF_0.22to3,2.142976692,-20.4091,787644,1,0.22-3
TARA_071_SRF_0.22to3,3.119572978,-9.3,247157,1,0.22-3
TARA_072_DCM_0.22to3,3.499424057,-8.7296,249113,1,0.22-3
TARA_072_SRF_0.22to3,2.506127871,-8.7789,260922,1,0.22-3
TARA_076_DCM_0.22to3,2.575800964,-21.0292,236735,1,0.22-3
TARA_076_SRF_0.22to3,2.919068493,-20.9354,273618,1,0.22-3
TARA_078_DCM_0.22to3,3.715166185,-30.1484,963060,1,0.22-3
TARA_078_SRF_0.22to3,1.697885099,-30.1367,334793,1,0.22-3
TARA_080_SRF_0.22to3,3.475878415,-40.6511,1180410,1,0.22-3
TARA_081_DCM_0.22to3,3.271077175,-44.5913,1231238,1,0.22-3
TARA_081_SRF_0.22to3,2.392153472,-44.5342,996709,1,0.22-3
TARA_082_DCM_0.22to3,2.743226979,-47.2007,301965,1,0.22-3
TARA_082_SRF_0.22to3,2.277298935,-47.1863,215698,1,0.22-3
TARA_083_SRF_0.22to3,1.948732545,-54.3739,1640584,1,0.22-3
TARA_084_SRF_0.22to3,3.056240652,-60.2287,153070,1,0.22-3
TARA_085_DCM_0.22to3,2.487291707,-62.2231,137981,1,0.22-3
TARA_085_SRF_0.22to3,2.943768692,-62.0385,153716,1,0.22-3
TARA_086_DCM_0.22to3,2.528344537,-64.3183,36830,1,0.22-3
TARA_086_SRF_0.22to3,2.683165013,-64.3595,76481,1,0.22-3
TARA_087_SRF_0.22to3,1.637871285,-63.8768,860850,1,0.22-3
TARA_088_SRF_0.22to3,1.311531697,-63.4015,1411576,1,0.22-3
TARA_089_SRF_0.22to3,2.413180106,-57.7338,1439071,1,0.22-3
TARA_090_SRF_0.22to3,2.631442981,-39.6466,1101553,1,0.22-3
TARA_091_SRF_0.22to3,3.064828519,-34.161,744418,1,0.22-3
TARA_092_SRF_0.22to3,2.806139637,-33.6895,402132,1,0.22-3
TARA_093_DCM_0.22to3,2.854883407,-33.9116,692940,1,0.22-3
TARA_093_SRF_0.22to3,3.44473389,-34.0614,927667,1,0.22-3
TARA_096_DCM_0.22to3,3.083784197,-29.668,614814,1,0.22-3
TARA_096_SRF_0.22to3,2.713177443,-29.7238,933311,1,0.22-3
TARA_097_DCM_0.22to3,2.262111367,-28.1874,141347,1,0.22-3
TARA_097_SRF_0.22to3,3.143114376,-28.1698,365709,1,0.22-3
TARA_098_DCM_0.22to3,3.580185383,-25.826,190367,1,0.22-3
TARA_098_SRF_0.22to3,2.114992173,-25.8051,452261,1,0.22-3
TARA_099_SRF_0.22to3,2.842999279,-21.146,348463,1,0.22-3
TARA_100_DCM_0.22to3,3.65690154,-12.9794,392300,1,0.22-3
TARA_100_SRF_0.22to3,3.81230829,-13.0023,201906,1,0.22-3
TARA_102_DCM_0.22to3,3.76104346,-5.2669,278044,1,0.22-3
TARA_102_SRF_0.22to3,2.998979271,-5.2529,169987,1,0.22-3
TARA_106_DCM_0.22to3,2.906047631,0.0307,814392,1,0.22-3
TARA_106_SRF_0.22to3,3.175649283,-0.0283,555689,1,0.22-3
TARA_109_DCM_0.22to3,3.471552141,2.0299,316416,1,0.22-3
TARA_109_SRF_0.22to3,2.532428356,1.9928,162797,1,0.22-3
TARA_110_DCM_0.22to3,2.972418033,-1.9002,397186,1,0.22-3
TARA_110_SRF_0.22to3,2.559827207,-2.0133,354485,1,0.22-3
TARA_111_DCM_0.22to3,3.838901019,-16.9587,356400,1,0.22-3
TARA_111_SRF_0.22to3,3.873236057,-16.9601,372295,1,0.22-3
TARA_112_DCM_0.22to3,1.819946707,-23.2189,301718,1,0.22-3
TARA_112_SRF_0.22to3,2.167785992,-23.2811,213849,1,0.22-3
TARA_113_SRF_0.22to3,2.792397807,-23.1108,302839,1,0.22-3
TARA_122_DCM_0.22to3,2.57038507,-9.0063,321919,1,0.22-3
TARA_122_SRF_0.22to3,3.21396385,-8.9971,204034,1,0.22-3
TARA_123_MIX_0.22to3,2.412702404,-8.9109,262854,1,0.22-3
TARA_123_SRF_0.22to3,3.204117799,-8.9068,395799,1,0.22-3
TARA_124_MIX_0.22to3,3.30958322,-9.0714,260147,1,0.22-3
TARA_124_SRF_0.22to3,2.405662485,-9.1504,480179,1,0.22-3
TARA_125_MIX_0.22to3,1.543548261,-8.8999,241369,1,0.22-3
TARA_125_SRF_0.22to3,2.898011647,-8.9111,384266,1,0.22-3
TARA_127_DCM_0.22to3,2.456328384,-6.628,691204,1,0.22-3
TARA_127_SRF_0.22to3,3.081057786,-6.6499,312383,1,0.22-3
TARA_128_DCM_0.22to3,2.038633867,0.0222,209033,1,0.22-3
TARA_128_SRF_0.22to3,2.397181599,0.0003,376119,1,0.22-3
TARA_129_DCM_0.22to3,2.707511648,6.6112,147862,1,0.22-3
TARA_129_SRF_0.22to3,2.490846848,6.671,256444,1,0.22-3
TARA_131_DCM_0.22to3,3.381564005,22.7901,276388,1,0.22-3
TARA_131_SRF_0.22to3,2.470811044,22.7598,558253,1,0.22-3
TARA_132_DCM_0.22to3,3.942648252,31.5168,402525,1,0.22-3
TARA_132_SRF_0.22to3,2.378783186,31.5213,202201,1,0.22-3
TARA_133_DCM_0.22to3,3.173669641,35.4002,1960492,1,0.22-3
TARA_133_SRF_0.22to3,2.346555536,35.3671,1661215,1,0.22-3
TARA_134_SRF_0.22to3,4.014526987,32.7526,1029146,1,0.22-3
TARA_135_DCM_0.22to3,3.488639461,32.931,2185221,1,0.22-3
TARA_135_SRF_0.22to3,3.985412548,32.9986,953319,1,0.22-3
TARA_136_SRF_0.22to3,2.990026082,17.0854,392879,1,0.22-3
TARA_137_DCM_0.22to3,3.529101183,14.2075,278564,1,0.22-3
TARA_137_SRF_0.22to3,1.727120718,14.2035,398840,1,0.22-3
TARA_138_DCM_0.22to3,2.094244157,6.3378,663358,1,0.22-3
TARA_138_SRF_0.22to3,1.713198959,6.3332,520453,1,0.22-3
TARA_139_SRF_0.22to3,3.387829746,6.4998,497997,1,0.22-3
TARA_140_SRF_0.22to3,2.650902254,7.4122,223090,1,0.22-3
TARA_141_SRF_0.22to3,3.36901979,9.8481,408999,1,0.22-3
TARA_142_DCM_0.22to3,2.992388985,25.6168,197985,1,0.22-3
TARA_142_SRF_0.22to3,3.126971979,25.5264,179122,1,0.22-3
TARA_143_DCM_0.22to3,1.995936495,29.851,280898,1,0.22-3
TARA_143_SRF_0.22to3,2.529200373,29.6394,378014,1,0.22-3
TARA_144_SRF_0.22to3,1.821716604,36.3698,457537,1,0.22-3
TARA_145_SRF_0.22to3,3.628472694,39.2305,244820,1,0.22-3
TARA_147_SRF_0.22to3,3.05255041,33.061,243149,1,0.22-3
TARA_148_SRF_0.22to3,3.681206695,34.1504,504814,1,0.22-3
TARA_149_SRF_0.22to3,1.746623094,34.1132,1115585,1,0.22-3
TARA_150_DCM_0.22to3,3.705574397,35.8427,822632,1,0.22-3
TARA_150_SRF_0.22to3,3.724177389,35.9346,482293,1,0.22-3
TARA_151_DCM_0.22to3,4.168337596,36.1811,1640925,1,0.22-3
TARA_151_SRF_0.22to3,3.719050449,36.1715,663393,1,0.22-3
TARA_152_MIX_0.22to3,4.372058213,43.7056,7864164,1,0.22-3
TARA_152_SRF_0.22to3,4.048105326,43.6792,921564,1,0.22-3
TARA_153_MIX_0.22to3,3.833396406,44.0342,3874759,1,0.22-3
TARA_155_DCM_0.22to3,3.678845545,54.5451,2589250,1,0.22-3
TARA_155_SRF_0.22to3,2.591715039,54.5305,2286505,1,0.22-3
TARA_158_DCM_0.22to3,1.866840573,67.161,1648511,1,0.22-3
TARA_158_SRF_0.22to3,2.517897352,67.141,745113,1,0.22-3
TARA_163_SRF_0.22to3,2.378362822,76.1825,308963,1,0.22-3
TARA_168_DCM_0.22to3,2.660164971,72.5432,1291023,1,0.22-3
TARA_168_MIX_0.22to3,3.493927285,72.5199,1449112,1,0.22-3
TARA_168_SRF_0.22to3,3.232031998,72.5128,407218,1,0.22-3
TARA_173_DCM_0.22to3,2.905347018,78.9354,400552,1,0.22-3
TARA_173_SRF_0.22to3,3.207230816,78.9564,612086,1,0.22-3
TARA_175_MIX_0.22to3,3.527767006,79.2026,1032955,1,0.22-3
TARA_175_SRF_0.22to3,3.082841427,79.3349,382216,1,0.22-3
TARA_175_ZZZ_0.22to3,2.512948132,79.2233,440564,1,0.22-3
TARA_178_SRF_0.22to3,2.861497105,77.1604,501470,1,0.22-3
TARA_180_SRF_0.22to3,4.065643234,74.8283,456452,1,0.22-3
TARA_180_DCM_0.22to3,2.91813845,74.8023,598966,1,0.22-3
TARA_188_DCM_0.22to3,2.932823179,78.3555,496958,1,0.22-3
TARA_188_SRF_0.22to3,2.540205184,78.2518,456377,1,0.22-3
TARA_189_DCM_0.22to3,2.254293338,77.9668,862454,1,0.22-3
TARA_189_SRF_0.22to3,3.759942617,78.0391,654569,1,0.22-3
TARA_191_SRF_0.22to3,3.329910701,71.5955,843566,1,0.22-3
TARA_193_SRF_0.22to3,3.524291125,71.0704,249784,1,0.22-3
TARA_194_DCM_0.22to3,3.961141756,73.3275,547056,1,0.22-3
TARA_194_SRF_0.22to3,3.920463825,73.3833,201523,1,0.22-3
TARA_196_SRF_0.22to3,4.20234399,71.8895,1099567,1,0.22-3
TARA_201_DCM_0.22to3,1.832038995,74.3386,673720,1,0.22-3
TARA_201_SRF_0.22to3,3.82002294,74.2987,252602,1,0.22-3
TARA_205_SRF_0.22to3,1.287362368,72.4693,1025446,1,0.22-3
TARA_206_SRF_0.22to3,3.700977386,70.9574,2689866,1,0.22-3
TARA_208_SRF_0.22to3,4.15431152,69.1136,789689,1,0.22-3
TARA_209_SRF_0.22to3,2.884430527,64.7127,1106238,1,0.22-3
TARA_210_SRF_0.22to3,3.360845067,61.5427,2684412,1,0.22-3
011_SRF_lt0.22,6.649901366,41.6686,,0,W<0.22
018_SRF_lt0.22,6.502577834,35.759,,0,W<0.22
018_DCM_lt0.22,6.854210793,35.7528,,0,W<0.22
022_SRF_lt0.22,7.304521199,39.8386,,0,W<0.22
023_DCM_lt0.22,7.586258653,42.1735,,0,W<0.22
025_SRF_lt0.22,7.286722034,39.3888,,0,W<0.22
025_DCM_lt0.22,7.212724453,39.3991,,0,W<0.22
030_DCM_lt0.22,7.133385553,33.9235,,0,W<0.22
031_SRF_lt0.22,6.942467753,27.16,,0,W<0.22
032_SRF_lt0.22,7.43514359,23.36,,0,W<0.22
032_DCM_lt0.22,3.612506142,23.4183,,0,W<0.22
033_SRF_lt0.22,7.333900407,21.9467,,0,W<0.22
034_SRF_lt0.22,7.040340007,18.3967,,0,W<0.22
034_DCM_lt0.22,7.171098016,18.4417,,0,W<0.22
036_SRF_lt0.22,6.631915594,20.8183,,0,W<0.22
036_DCM_lt0.22,6.882564048,20.8222,,0,W<0.22
038_SRF_lt0.22,7.28149634,19.0393,,0,W<0.22
038_DCM_lt0.22,7.068441697,19.0284,,0,W<0.22
039_SRF_lt0.22,7.368107484,18.5918,,0,W<0.22
039_DCM_lt0.22,7.455246612,18.5839,,0,W<0.22
041_SRF_lt0.22,7.024892574,14.6059,,0,W<0.22
041_DCM_lt0.22,6.644079329,14.5536,,0,W<0.22
042_SRF_lt0.22,7.178254015,6.0001,,0,W<0.22
042_DCM_lt0.22,6.967801168,5.9998,,0,W<0.22
045_SRF_lt0.22,7.312364955,0.0033,,0,W<0.22
046_SRF_lt0.22,7.24917561,-0.6625,,0,W<0.22
048_SRF_lt0.22,7.181674052,-9.3921,,0,W<0.22
052_SRF_lt0.22,7.406277517,-16.957,,0,W<0.22
052_DCM_lt0.22,7.435552311,-16.9534,,0,W<0.22
056_SRF_lt0.22,7.655036812,-15.3424,,0,W<0.22
058_DCM_lt0.22,7.358005306,-17.2855,,0,W<0.22
062_SRF_lt0.22,7.445457541,-22.3368,,0,W<0.22
064_SRF_lt0.22,7.33188023,-29.5019,,0,W<0.22
064_DCM_lt0.22,7.582282807,-29.5333,,0,W<0.22
065_SRF_lt0.22,7.562380242,-35.1728,,0,W<0.22
065_DCM_lt0.22,7.657779427,-35.2421,,0,W<0.22
066_SRF_lt0.22,6.784875155,-34.9449,,0,W<0.22
066_DCM_lt0.22,6.894454173,-34.8901,,0,W<0.22
067_SRF_lt0.22,6.637639798,-32.2401,,0,W<0.22
068_SRF_lt0.22,7.141858539,-31.0266,,0,W<0.22
068_DCM_lt0.22,7.211384874,-31.027,,0,W<0.22
070_SRF_lt0.22,7.154688507,-20.4091,,0,W<0.22
072_SRF_lt0.22,7.114153989,-8.7789,,0,W<0.22
072_DCM_lt0.22,7.139007722,-8.7296,,0,W<0.22
076_DCM_lt0.22,7.293766471,-21.0292,,0,W<0.22
078_SRF_lt0.22,7.286161166,-30.1367,,0,W<0.22
078_DCM_lt0.22,7.265047833,-30.1484,,0,W<0.22
082_SRF_lt0.22,4.028625442,-47.1863,,0,W<0.22
082_DCM_lt0.22,4.569991373,-47.2007,,0,W<0.22
084_SRF_lt0.22,4.809964018,-60.2287,,0,W<0.22
085_SRF_lt0.22,5.98310253,-62.0385,,0,W<0.22
085_DCM_lt0.22,5.835106545,-62.2231,,0,W<0.22
100_SRF_lt0.22,6.942344338,-13.0023,,0,W<0.22
100_DCM_lt0.22,6.964706139,-12.9723,,0,W<0.22
102_SRF_lt0.22,7.3612529,-5.2529,,0,W<0.22
102_DCM_lt0.22,7.385455427,-5.2669,,0,W<0.22
109_SRF_lt0.22,7.371597649,1.9928,,0,W<0.22
109_DCM_lt0.22,7.151923703,2.0299,,0,W<0.22
111_SRF_lt0.22,7.114601758,-16.9601,,0,W<0.22
111_DCM_lt0.22,6.710866381,-16.9587,,0,W<0.22
122_SRF_lt0.22,7.4196977,-8.9971,,0,W<0.22
122_DCM_lt0.22,7.431835268,-9.0063,,0,W<0.22
123_SRF_lt0.22,7.540355981,-8.9068,,0,W<0.22
123_MIX_lt0.22,7.482303797,-8.9109,,0,W<0.22
124_SRF_lt0.22,7.615526659,-9.1504,,0,W<0.22
124_MIX_lt0.22,7.939123773,-9.0714,,0,W<0.22
125_SRF_lt0.22,7.363340042,-8.9111,,0,W<0.22
125_MIX_lt0.22,6.910816765,-8.8999,,0,W<0.22
137_SRF_lt0.22,6.734389605,14.2035,,0,W<0.22
137_DCM_lt0.22,6.640007279,14.2075,,0,W<0.22
138_SRF_lt0.22,6.943636321,6.3332,,0,W<0.22
138_DCM_lt0.22,6.851746796,6.3378,,0,W<0.22
155_SRF_lt0.22,3.445713484,54.5305,,0,W<0.22
155_DCM_lt0.22,6.498286957,54.5451,,0,W<0.22
155_MES_lt0.22,7.023797624,54.5742,,0,W<0.22
158_SRF_lt0.22,5.640894856,67.141,,0,W<0.22
158_DCM_lt0.22,6.43665093,67.161,,0,W<0.22
158_MES_lt0.22,4.77718503,67.1675,,0,W<0.22
163_SRF_lt0.22,5.088169491,76.1825,,0,W<0.22
163_MES_lt0.22,4.471134689,76.1246,,0,W<0.22
168_SRF_lt0.22,5.879903154,72.5128,,0,W<0.22
168_DCM_lt0.22,6.112312064,72.5432,,0,W<0.22
168_MIX_lt0.22,6.627562781,72.5199,,0,W<0.22
173_SRF_lt0.22,6.807088163,78.9564,,0,W<0.22
173_DCM_lt0.22,7.385259926,78.9354,,0,W<0.22
175_SRF_lt0.22,7.542435543,79.2233,,0,W<0.22
175_MIX_lt0.22,6.03129486,79.3349,,0,W<0.22
175_ZZZ_lt0.22,5.751741832,79.2026,,0,W<0.22
178_SRF_lt0.22,6.553167346,77.1604,,0,W<0.22
180_SRF_lt0.22,6.618345619,74.8023,,0,W<0.22
180_DCM_lt0.22,6.781474504,74.8283,,0,W<0.22
188_SRF_lt0.22,7.068495199,78.2518,,0,W<0.22
188_DCM_lt0.22,7.170983612,78.3555,,0,W<0.22
189_SRF_lt0.22,7.639225302,77.9028,,0,W<0.22
189_DCM_lt0.22,7.610432212,77.9668,,0,W<0.22
189_MES_lt0.22,7.696534567,78.0391,,0,W<0.22
191_SRF_lt0.22,7.292642275,71.5955,,0,W<0.22
193_SRF_lt0.22,7.209754319,71.0704,,0,W<0.22
194_SRF_lt0.22,7.508969751,73.3833,,0,W<0.22
194_DCM_lt0.22,7.289400772,73.3275,,0,W<0.22
196_SRF_lt0.22,7.477678592,71.8895,,0,W<0.22
201_SRF_lt0.22,7.200452448,74.2987,,0,W<0.22
201_DCM_lt0.22,7.368334561,74.3386,,0,W<0.22
201_MES_lt0.22,7.289328688,74.305,,0,W<0.22
205_SRF_lt0.22,7.161724215,72.4693,,0,W<0.22
205_MES_lt0.22,7.823655279,72.4456,,0,W<0.22
206_SRF_lt0.22,7.717310304,70.9574,,0,W<0.22
206_MES_lt0.22,7.437262218,70.9433,,0,W<0.22
208_SRF_lt0.22,7.464476577,69.1136,,0,W<0.22
209_SRF_lt0.22,7.520891788,64.7127,,0,W<0.22
209_MES_lt0.22,7.481013201,64.7,,0,W<0.22
210_SRF_lt0.22,7.364645243,61.5427,,0,W<0.22
210_MES_lt0.22,5.92345974,61.5754,,0,W<0.22